#BE,Min,Max,Elev.media,Area(km2),Arelat,AN_relat,AEO_relat,AS_relat
1,1600,1700,1675,"0,0443","0,02",0,"0,02",0
2,1700,1800,1763,"0,1988","0,08",0,"0,06","0,02"
3,1800,1900,1853,"0,3506","0,15",0,"0,09","0,05"
4,1900,2000,1954,"0,4272","0,18",0,"0,13","0,05"
5,2000,2100,2052,"0,5157","0,22","0,01","0,17","0,04"
6,2100,2200,2141,"0,4967","0,21","0,02","0,17","0,03"
7,2200,2300,2249,"0,2199","0,09",0,"0,08","0,01"
8,2300,2400,2322,"0,1117","0,05",0,"0,03","0,02"
